EESchema Schematic File Version 2
LIBS:power
LIBS:device
LIBS:transistors
LIBS:conn
LIBS:linear
LIBS:regul
LIBS:74xx
LIBS:cmos4000
LIBS:adc-dac
LIBS:memory
LIBS:xilinx
LIBS:microcontrollers
LIBS:dsp
LIBS:microchip
LIBS:analog_switches
LIBS:motorola
LIBS:texas
LIBS:intel
LIBS:audio
LIBS:interface
LIBS:digital-audio
LIBS:philips
LIBS:display
LIBS:cypress
LIBS:siliconi
LIBS:opto
LIBS:atmel
LIBS:contrib
LIBS:valves
LIBS:my-microcontrollers
LIBS:my-misc-modules
LIBS:my-power
LIBS:my-relays
LIBS:my-passives
LIBS:usb-analog-logger-cache
EELAYER 25 0
EELAYER END
$Descr A4 11693 8268
encoding utf-8
Sheet 1 1
Title ""
Date ""
Rev ""
Comp ""
Comment1 ""
Comment2 ""
Comment3 ""
Comment4 ""
$EndDescr
$Comp
L +5V #PWR01
U 1 1 5AF0659C
P 3800 1050
F 0 "#PWR01" H 3800 900 50  0001 C CNN
F 1 "+5V" H 3800 1190 50  0000 C CNN
F 2 "" H 3800 1050 50  0000 C CNN
F 3 "" H 3800 1050 50  0000 C CNN
	1    3800 1050
	1    0    0    -1  
$EndComp
$Comp
L ADS1115-module U1
U 1 1 5AF067A4
P 4450 4800
F 0 "U1" H 4450 4800 60  0000 C CNN
F 1 "ADS1115-module" V 4550 4800 60  0000 C CNN
F 2 "myModules:ADS1115-module" H 4450 4800 60  0001 C CNN
F 3 "" H 4450 4800 60  0000 C CNN
	1    4450 4800
	-1   0    0    -1  
$EndComp
$Comp
L +5V #PWR02
U 1 1 5AF06805
P 3500 4250
F 0 "#PWR02" H 3500 4100 50  0001 C CNN
F 1 "+5V" H 3500 4390 50  0000 C CNN
F 2 "" H 3500 4250 50  0000 C CNN
F 3 "" H 3500 4250 50  0000 C CNN
	1    3500 4250
	1    0    0    -1  
$EndComp
$Comp
L GND #PWR03
U 1 1 5AF06881
P 3700 5850
F 0 "#PWR03" H 3700 5600 50  0001 C CNN
F 1 "GND" H 3700 5700 50  0000 C CNN
F 2 "" H 3700 5850 50  0000 C CNN
F 3 "" H 3700 5850 50  0000 C CNN
	1    3700 5850
	1    0    0    -1  
$EndComp
$Comp
L GND #PWR04
U 1 1 5AF2EAC0
P 3900 3700
F 0 "#PWR04" H 3900 3450 50  0001 C CNN
F 1 "GND" H 3900 3550 50  0000 C CNN
F 2 "" H 3900 3700 50  0000 C CNN
F 3 "" H 3900 3700 50  0000 C CNN
	1    3900 3700
	1    0    0    -1  
$EndComp
$Comp
L C C1
U 1 1 5D529917
P 3500 5500
F 0 "C1" H 3525 5600 50  0000 L CNN
F 1 "100nF" H 3300 5400 50  0000 L CNN
F 2 "Capacitors_ThroughHole:C_Rect_L7_W3.5_P5" H 3538 5350 50  0001 C CNN
F 3 "" H 3500 5500 50  0000 C CNN
	1    3500 5500
	1    0    0    -1  
$EndComp
$Comp
L GND #PWR05
U 1 1 5D52A4A2
P 3300 5450
F 0 "#PWR05" H 3300 5200 50  0001 C CNN
F 1 "GND" H 3300 5300 50  0000 C CNN
F 2 "" H 3300 5450 50  0000 C CNN
F 3 "" H 3300 5450 50  0000 C CNN
	1    3300 5450
	1    0    0    -1  
$EndComp
$Comp
L Arduino_UNO_R3 A1
U 1 1 5D52A59E
P 4000 2350
F 0 "A1" H 4050 2350 50  0000 R CNN
F 1 "Arduino_UNO_R3" V 3900 2650 50  0000 R CNN
F 2 "myMicroControllers:ARDUINO-UNO-R3" H 4150 1300 50  0001 L CNN
F 3 "" H 3800 3400 50  0001 C CNN
	1    4000 2350
	-1   0    0    -1  
$EndComp
$Comp
L CONN_01X05 P3
U 1 1 5D52AFC7
P 2900 5150
F 0 "P3" H 2900 5450 50  0000 C CNN
F 1 "ANALOG" V 3000 5150 50  0000 C CNN
F 2 "Pin_Headers:Pin_Header_Straight_1x05" H 2900 5150 50  0001 C CNN
F 3 "" H 2900 5150 50  0000 C CNN
	1    2900 5150
	-1   0    0    1   
$EndComp
$Comp
L GND #PWR06
U 1 1 5D52B24C
P 3200 1750
F 0 "#PWR06" H 3200 1500 50  0001 C CNN
F 1 "GND" H 3200 1600 50  0000 C CNN
F 2 "" H 3200 1750 50  0000 C CNN
F 3 "" H 3200 1750 50  0000 C CNN
	1    3200 1750
	1    0    0    -1  
$EndComp
$Comp
L R R1
U 1 1 5D52BB91
P 5450 3500
F 0 "R1" V 5530 3500 50  0000 C CNN
F 1 "1K" V 5450 3500 50  0000 C CNN
F 2 "Resistors_ThroughHole:Resistor_Horizontal_RM10mm" V 5380 3500 50  0001 C CNN
F 3 "" H 5450 3500 50  0000 C CNN
	1    5450 3500
	0    1    1    0   
$EndComp
$Comp
L R R2
U 1 1 5D52BBD4
P 6150 4400
F 0 "R2" V 6230 4400 50  0000 C CNN
F 1 "1K" V 6150 4400 50  0000 C CNN
F 2 "Resistors_ThroughHole:Resistor_Horizontal_RM10mm" V 6080 4400 50  0001 C CNN
F 3 "" H 6150 4400 50  0000 C CNN
	1    6150 4400
	0    1    1    0   
$EndComp
$Comp
L PN2222A Q1
U 1 1 5D52BC9B
P 5900 3500
F 0 "Q1" H 6100 3575 50  0000 L CNN
F 1 "PN2222A" H 6100 3500 50  0000 L CNN
F 2 "TO_SOT_Packages_THT:TO-92_Inline_Wide" H 6100 3425 50  0001 L CIN
F 3 "" H 5900 3500 50  0000 L CNN
	1    5900 3500
	1    0    0    -1  
$EndComp
$Comp
L GND #PWR07
U 1 1 5D52BD7C
P 6000 3850
F 0 "#PWR07" H 6000 3600 50  0001 C CNN
F 1 "GND" H 6000 3700 50  0000 C CNN
F 2 "" H 6000 3850 50  0000 C CNN
F 3 "" H 6000 3850 50  0000 C CNN
	1    6000 3850
	1    0    0    -1  
$EndComp
$Comp
L PN2222A Q2
U 1 1 5D52BE9D
P 6600 4400
F 0 "Q2" H 6800 4475 50  0000 L CNN
F 1 "PN2222A" H 6800 4400 50  0000 L CNN
F 2 "TO_SOT_Packages_THT:TO-92_Inline_Wide" H 6800 4325 50  0001 L CIN
F 3 "" H 6600 4400 50  0000 L CNN
	1    6600 4400
	1    0    0    -1  
$EndComp
$Comp
L GND #PWR08
U 1 1 5D52BEA4
P 6700 4700
F 0 "#PWR08" H 6700 4450 50  0001 C CNN
F 1 "GND" H 6700 4550 50  0000 C CNN
F 2 "" H 6700 4700 50  0000 C CNN
F 3 "" H 6700 4700 50  0000 C CNN
	1    6700 4700
	1    0    0    -1  
$EndComp
$Comp
L RELAY_SPDT K2
U 1 1 5D52BF3C
P 7200 3650
F 0 "K2" H 7150 3750 50  0000 C CNN
F 1 "FINDER-36.11.9.005.4011" H 7350 3150 50  0000 C CNN
F 2 "myRelays:Relay_SPDT_Finder-36.11" H 7200 3650 50  0001 C CNN
F 3 "" H 7200 3650 50  0000 C CNN
	1    7200 3650
	1    0    0    -1  
$EndComp
$Comp
L RELAY_SPDT K1
U 1 1 5D52BF9F
P 7200 2750
F 0 "K1" H 7150 2850 50  0000 C CNN
F 1 "FINDER-36.11.9.005.4011" H 7350 2250 50  0000 C CNN
F 2 "myRelays:Relay_SPDT_Finder-36.11" H 7200 2750 50  0001 C CNN
F 3 "" H 7200 2750 50  0000 C CNN
	1    7200 2750
	1    0    0    -1  
$EndComp
$Comp
L +5V #PWR09
U 1 1 5D52C042
P 6600 2500
F 0 "#PWR09" H 6600 2350 50  0001 C CNN
F 1 "+5V" H 6600 2640 50  0000 C CNN
F 2 "" H 6600 2500 50  0000 C CNN
F 3 "" H 6600 2500 50  0000 C CNN
	1    6600 2500
	1    0    0    -1  
$EndComp
$Comp
L CONN_01X06 P5
U 1 1 5D52C384
P 8300 3550
F 0 "P5" H 8300 3900 50  0000 C CNN
F 1 "RELAYS" V 8400 3550 50  0000 C CNN
F 2 "Pin_Headers:Pin_Header_Straight_1x06" H 8300 3550 50  0001 C CNN
F 3 "" H 8300 3550 50  0000 C CNN
	1    8300 3550
	1    0    0    1   
$EndComp
$Comp
L D D1
U 1 1 5D52C7FF
P 6000 2850
F 0 "D1" H 6000 2950 50  0000 C CNN
F 1 "1N4148" H 6000 2750 50  0000 C CNN
F 2 "Diodes_ThroughHole:Diode_DO-35_SOD27_Horizontal_RM10" H 6000 2850 50  0001 C CNN
F 3 "" H 6000 2850 50  0000 C CNN
	1    6000 2850
	0    1    1    0   
$EndComp
$Comp
L D D2
U 1 1 5D52C8DF
P 6300 2850
F 0 "D2" H 6300 2950 50  0000 C CNN
F 1 "1N4148" H 6300 2750 50  0000 C CNN
F 2 "Diodes_ThroughHole:Diode_DO-35_SOD27_Horizontal_RM10" H 6300 2850 50  0001 C CNN
F 3 "" H 6300 2850 50  0000 C CNN
	1    6300 2850
	0    1    1    0   
$EndComp
$Comp
L PN2222A Q3
U 1 1 5D52DC03
P 6600 5850
F 0 "Q3" H 6800 5925 50  0000 L CNN
F 1 "PN2222A" H 6800 5850 50  0000 L CNN
F 2 "TO_SOT_Packages_THT:TO-92_Inline_Wide" H 6800 5775 50  0001 L CIN
F 3 "" H 6600 5850 50  0000 L CNN
	1    6600 5850
	1    0    0    -1  
$EndComp
$Comp
L Buzzer BZ1
U 1 1 5D52DC6F
P 7000 5400
F 0 "BZ1" H 7100 5300 60  0000 C CNN
F 1 "passive-buzzer" H 7250 5600 60  0000 C CNN
F 2 "Buzzers_Beepers:MagneticBuzzer_ProSignal_ABT-410-RC" H 7000 5400 60  0001 C CNN
F 3 "" H 7000 5400 60  0000 C CNN
	1    7000 5400
	1    0    0    -1  
$EndComp
$Comp
L +5V #PWR010
U 1 1 5D52DCEB
P 6700 5300
F 0 "#PWR010" H 6700 5150 50  0001 C CNN
F 1 "+5V" H 6700 5440 50  0000 C CNN
F 2 "" H 6700 5300 50  0000 C CNN
F 3 "" H 6700 5300 50  0000 C CNN
	1    6700 5300
	1    0    0    -1  
$EndComp
$Comp
L R R3
U 1 1 5D52DFCF
P 6150 5850
F 0 "R3" V 6230 5850 50  0000 C CNN
F 1 "1K" V 6150 5850 50  0000 C CNN
F 2 "Resistors_ThroughHole:Resistor_Horizontal_RM10mm" V 6080 5850 50  0001 C CNN
F 3 "" H 6150 5850 50  0000 C CNN
	1    6150 5850
	0    1    1    0   
$EndComp
$Comp
L GND #PWR011
U 1 1 5D52E15D
P 6700 6150
F 0 "#PWR011" H 6700 5900 50  0001 C CNN
F 1 "GND" H 6700 6000 50  0000 C CNN
F 2 "" H 6700 6150 50  0000 C CNN
F 3 "" H 6700 6150 50  0000 C CNN
	1    6700 6150
	1    0    0    -1  
$EndComp
$Comp
L CONN_01X06 P4
U 1 1 5D52D87C
P 5400 2200
F 0 "P4" H 5400 2550 50  0000 C CNN
F 1 "GPIOS" V 5500 2200 50  0000 C CNN
F 2 "Pin_Headers:Pin_Header_Straight_1x06" H 5400 2200 50  0001 C CNN
F 3 "" H 5400 2200 50  0000 C CNN
	1    5400 2200
	1    0    0    -1  
$EndComp
$Comp
L CONN_01X06 P1
U 1 1 5D52B0D5
P 2900 1400
F 0 "P1" H 2900 1750 50  0000 C CNN
F 1 "POWER" V 3000 1400 50  0000 C CNN
F 2 "Pin_Headers:Pin_Header_Straight_1x06" H 2900 1400 50  0001 C CNN
F 3 "" H 2900 1400 50  0000 C CNN
	1    2900 1400
	-1   0    0    -1  
$EndComp
$Comp
L CONN_01X08 P6
U 1 1 5D52E470
P 5400 2900
F 0 "P6" H 5400 2450 50  0000 C CNN
F 1 "GPIOS" V 5500 2900 50  0000 C CNN
F 2 "Pin_Headers:Pin_Header_Straight_1x08" H 5400 2900 50  0001 C CNN
F 3 "" H 5400 2900 50  0000 C CNN
	1    5400 2900
	1    0    0    -1  
$EndComp
Wire Wire Line
	3400 1750 3500 1750
Wire Wire Line
	4600 3250 5200 3250
Wire Wire Line
	4600 3600 4600 3250
Wire Wire Line
	3300 3600 4600 3600
Wire Wire Line
	3300 2150 3300 3600
Wire Wire Line
	3500 2150 3300 2150
Connection ~ 4100 3550
Wire Wire Line
	4500 3050 5200 3050
Connection ~ 4750 2950
Connection ~ 4700 2850
Connection ~ 4800 2750
Wire Wire Line
	4500 2050 5200 2050
Wire Wire Line
	6700 6150 6700 6050
Wire Wire Line
	4500 2950 5200 2950
Wire Wire Line
	4750 5850 4750 2950
Wire Wire Line
	6000 5850 4750 5850
Wire Wire Line
	6300 5850 6400 5850
Wire Wire Line
	3800 1050 3800 1350
Wire Wire Line
	3300 5350 3300 5450
Wire Wire Line
	3100 5350 3300 5350
Wire Wire Line
	3800 5250 3100 5250
Wire Wire Line
	3100 5150 3800 5150
Wire Wire Line
	3800 5050 3100 5050
Wire Wire Line
	3100 4950 3800 4950
Wire Wire Line
	3100 2650 3500 2650
Wire Wire Line
	3500 2550 3100 2550
Wire Wire Line
	3100 2450 3500 2450
Wire Wire Line
	3500 2350 3100 2350
Wire Wire Line
	3900 3450 3900 3700
Wire Wire Line
	3100 2750 3500 2750
Wire Wire Line
	3100 2850 3500 2850
Wire Wire Line
	3700 4450 3700 5850
Wire Wire Line
	3700 4450 3800 4450
Wire Wire Line
	3500 4250 3500 5350
Wire Wire Line
	3500 4350 3800 4350
Connection ~ 3500 4350
Wire Wire Line
	3700 5750 3500 5750
Wire Wire Line
	3500 5750 3500 5650
Connection ~ 3700 5750
Wire Wire Line
	3400 4550 3800 4550
Wire Wire Line
	3350 4650 3800 4650
Wire Wire Line
	3200 1250 3200 1750
Wire Wire Line
	3200 1250 3100 1250
Wire Wire Line
	3100 1350 3200 1350
Connection ~ 3200 1350
Wire Wire Line
	3100 1450 3400 1450
Wire Wire Line
	3400 1450 3400 1200
Wire Wire Line
	3400 1200 3800 1200
Connection ~ 3800 1200
Wire Wire Line
	3100 1550 3450 1550
Wire Wire Line
	3450 1550 3450 1250
Wire Wire Line
	3450 1250 3900 1250
Wire Wire Line
	3900 1250 3900 1350
Wire Wire Line
	3100 1650 3400 1650
Wire Wire Line
	3400 1650 3400 1750
Wire Wire Line
	4500 2650 5200 2650
Wire Wire Line
	5200 2550 4500 2550
Wire Wire Line
	4500 2450 5200 2450
Wire Wire Line
	5200 2350 4500 2350
Wire Wire Line
	4500 2250 5200 2250
Wire Wire Line
	4500 2150 5200 2150
Wire Wire Line
	4500 1950 5200 1950
Wire Wire Line
	4100 1350 4100 1150
Wire Wire Line
	4100 1150 3100 1150
Wire Wire Line
	3400 2850 3400 4550
Wire Wire Line
	3350 2750 3350 4650
Wire Wire Line
	5300 3500 4800 3500
Wire Wire Line
	4800 3500 4800 2750
Wire Wire Line
	4500 2750 5200 2750
Wire Wire Line
	5700 3500 5600 3500
Wire Wire Line
	6000 3850 6000 3700
Wire Wire Line
	6400 4400 6300 4400
Wire Wire Line
	6700 4700 6700 4600
Wire Wire Line
	6000 4400 4700 4400
Wire Wire Line
	4700 4400 4700 2850
Wire Wire Line
	4500 2850 5200 2850
Wire Wire Line
	6600 3900 6800 3900
Wire Wire Line
	6600 2500 6600 3900
Wire Wire Line
	6600 3000 6800 3000
Connection ~ 6600 3000
Wire Wire Line
	6800 3100 6000 3100
Wire Wire Line
	6000 3000 6000 3300
Wire Wire Line
	6700 4200 6700 4000
Wire Wire Line
	6300 4000 6800 4000
Wire Wire Line
	8100 3700 7800 3700
Wire Wire Line
	8100 3600 7850 3600
Wire Wire Line
	7850 3600 7850 3400
Wire Wire Line
	7850 3400 6700 3400
Wire Wire Line
	6700 3400 6700 3700
Wire Wire Line
	6700 3700 6800 3700
Wire Wire Line
	8100 3500 7900 3500
Wire Wire Line
	8100 3400 7950 3400
Wire Wire Line
	8100 3300 8000 3300
Wire Wire Line
	8000 3300 8000 2500
Wire Wire Line
	8000 2500 6700 2500
Wire Wire Line
	6700 2500 6700 2800
Wire Wire Line
	6700 2800 6800 2800
Wire Wire Line
	6000 2600 6600 2600
Wire Wire Line
	6000 2600 6000 2700
Connection ~ 6600 2600
Wire Wire Line
	6300 2700 6300 2600
Connection ~ 6300 2600
Connection ~ 6000 3100
Wire Wire Line
	6300 3000 6300 4000
Connection ~ 6700 4000
Wire Wire Line
	7950 2700 7600 2700
Wire Wire Line
	7900 2900 7600 2900
Wire Wire Line
	8100 3800 7600 3800
Wire Wire Line
	7800 3600 7600 3600
Wire Wire Line
	3900 3550 4550 3550
Wire Wire Line
	4000 3550 4000 3450
Connection ~ 3900 3550
Wire Wire Line
	4100 3550 4100 3450
Connection ~ 4000 3550
Wire Wire Line
	6700 5300 6700 5400
Wire Wire Line
	6700 5400 6800 5400
Wire Wire Line
	6700 5650 6700 5550
Wire Wire Line
	6700 5550 6800 5550
$Comp
L CONN_01X06 P2
U 1 1 5D52F835
P 2900 2600
F 0 "P2" H 2900 2950 50  0000 C CNN
F 1 "ANALOG" V 3000 2600 50  0000 C CNN
F 2 "Pin_Headers:Pin_Header_Straight_1x06" H 2900 2600 50  0001 C CNN
F 3 "" H 2900 2600 50  0000 C CNN
	1    2900 2600
	-1   0    0    -1  
$EndComp
Connection ~ 3350 2750
Connection ~ 3400 2850
Wire Wire Line
	4550 3150 5200 3150
Wire Wire Line
	4550 3550 4550 3150
Wire Wire Line
	7800 3700 7800 3600
Wire Wire Line
	7950 3400 7950 2700
Wire Wire Line
	7900 3500 7900 2900
$Comp
L R R4
U 1 1 5D550CA5
P 4850 1700
F 0 "R4" V 4930 1700 50  0000 C CNN
F 1 "10K" V 4850 1700 50  0000 C CNN
F 2 "Resistors_ThroughHole:Resistor_Horizontal_RM10mm" V 4780 1700 50  0001 C CNN
F 3 "" H 4850 1700 50  0000 C CNN
	1    4850 1700
	-1   0    0    1   
$EndComp
Wire Wire Line
	4850 1850 4850 3050
Connection ~ 4850 3050
$Comp
L Led_Small D3
U 1 1 5D550ED2
P 4850 1350
F 0 "D3" H 4800 1475 50  0000 L CNN
F 1 "LED" H 4800 1250 50  0000 L CNN
F 2 "LEDs:LED-3MM" V 4850 1350 50  0001 C CNN
F 3 "" V 4850 1350 50  0000 C CNN
	1    4850 1350
	0    -1   -1   0   
$EndComp
Wire Wire Line
	4850 1450 4850 1550
$Comp
L +5V #PWR012
U 1 1 5D55110A
P 4850 1150
F 0 "#PWR012" H 4850 1000 50  0001 C CNN
F 1 "+5V" H 4850 1290 50  0000 C CNN
F 2 "" H 4850 1150 50  0000 C CNN
F 3 "" H 4850 1150 50  0000 C CNN
	1    4850 1150
	1    0    0    -1  
$EndComp
Wire Wire Line
	4850 1150 4850 1250
$Comp
L SW_PUSH SW1
U 1 1 5D5514EA
P 5300 4850
F 0 "SW1" H 5450 4960 50  0000 C CNN
F 1 "START" H 5300 4770 50  0000 C CNN
F 2 "mySwitches:µSW" H 5300 4850 50  0001 C CNN
F 3 "" H 5300 4850 50  0000 C CNN
	1    5300 4850
	0    1    1    0   
$EndComp
$Comp
L GND #PWR013
U 1 1 5D551584
P 5300 5250
F 0 "#PWR013" H 5300 5000 50  0001 C CNN
F 1 "GND" H 5300 5100 50  0000 C CNN
F 2 "" H 5300 5250 50  0000 C CNN
F 3 "" H 5300 5250 50  0000 C CNN
	1    5300 5250
	1    0    0    -1  
$EndComp
Wire Wire Line
	5300 5250 5300 5150
Wire Wire Line
	4900 4250 5300 4250
Wire Wire Line
	4900 4250 4900 1950
Connection ~ 4900 1950
Wire Wire Line
	5300 4250 5300 4550
$Comp
L SW_PUSH SW2
U 1 1 5D553539
P 5600 4850
F 0 "SW2" H 5750 4960 50  0000 C CNN
F 1 "STOP" H 5600 4770 50  0000 C CNN
F 2 "mySwitches:µSW" H 5600 4850 50  0001 C CNN
F 3 "" H 5600 4850 50  0000 C CNN
	1    5600 4850
	0    1    1    0   
$EndComp
Wire Wire Line
	5600 4550 5600 4200
Wire Wire Line
	5600 4200 4950 4200
Wire Wire Line
	4950 4200 4950 2050
Connection ~ 4950 2050
$Comp
L GND #PWR014
U 1 1 5D55376A
P 5600 5250
F 0 "#PWR014" H 5600 5000 50  0001 C CNN
F 1 "GND" H 5600 5100 50  0000 C CNN
F 2 "" H 5600 5250 50  0000 C CNN
F 3 "" H 5600 5250 50  0000 C CNN
	1    5600 5250
	1    0    0    -1  
$EndComp
Wire Wire Line
	5600 5150 5600 5250
Wire Wire Line
	3800 4850 3650 4850
Wire Wire Line
	3650 4850 3650 4050
Wire Wire Line
	3650 4050 4650 4050
Wire Wire Line
	4650 4050 4650 2150
Connection ~ 4650 2150
$EndSCHEMATC
